<?xml version="1.0" standalone="no"?>
<!DOCTYPE svg PUBLIC "-//W3C//DTD SVG 1.1//EN" "http://www.w3.org/Graphics/SVG/1.1/DTD/svg11.dtd" >
<svg xmlns="http://www.w3.org/2000/svg" xmlns:xlink="http://www.w3.org/1999/xlink" version="1.1">
<metadata>
Created by FontForge 20170731 at Tue Jun 10 13:04:28 2014
 By Aleksey,,,
(c) 1990-2006 Apple Computer Inc. (c) 1981 Linotype AG (c) 1990-91 Type Solutions Inc.
</metadata>
<defs>
<font id="Helvetica-Bold" horiz-adv-x="1139" >
  <font-face 
    font-family="Helvetica"
    font-weight="700"
    font-stretch="normal"
    units-per-em="2048"
    panose-1="0 0 0 0 0 0 0 0 0 0"
    ascent="1638"
    descent="-410"
    x-height="1088"
    cap-height="1503"
    bbox="-112 -475 1967 1966"
    underline-thickness="101"
    underline-position="-305"
    unicode-range="U+0008-FB02"
  />
<missing-glyph horiz-adv-x="748" 
d="M68 0v1365h544v-1365h-544zM136 68h408v1229h-408v-1229z" />
    <glyph glyph-name="uniFB01" unicode="fi" horiz-adv-x="1251" 
d="M28 879v201h156v70q0 174 77 259q69 80 281 80q26 0 53 -2t56 -4v-232q-20 1 -39 1.5t-46 0.5q-67 0 -82 -37t-13 -116v-20h187v-201h-187v-879h-284v879h-159zM827 0v1085h284v-1085h-284zM827 1223v260h279v-260h-279z" />
    <glyph glyph-name="uniFB02" unicode="fl" horiz-adv-x="1251" 
d="M28 879v201h156v70q0 174 77 259q69 80 281 80q26 0 53 -2t56 -4v-232q-20 1 -39 1.5t-46 0.5q-67 0 -82 -37t-13 -116v-20h187v-201h-187v-879h-284v879h-159zM827 0v1474h284v-1474h-284z" />
    <glyph glyph-name=".notdef" horiz-adv-x="748" 
d="M68 0v1365h544v-1365h-544zM136 68h408v1229h-408v-1229z" />
    <glyph glyph-name=".null" horiz-adv-x="0" 
 />
    <glyph glyph-name="nonmarkingreturn" horiz-adv-x="682" 
 />
    <glyph glyph-name="uni0008" horiz-adv-x="0" 
 />
    <glyph glyph-name="uni0008" horiz-adv-x="0" 
 />
    <glyph glyph-name="uni0008" horiz-adv-x="0" 
 />
    <glyph glyph-name="uni0009" unicode="&#x9;" horiz-adv-x="569" 
 />
    <glyph glyph-name="uni0009" unicode="&#xd;" horiz-adv-x="569" 
 />
    <glyph glyph-name="uni0009" unicode="&#xa;" horiz-adv-x="569" 
 />
    <glyph glyph-name="space" unicode=" " horiz-adv-x="569" 
 />
    <glyph glyph-name="exclam" unicode="!" horiz-adv-x="682" 
d="M225 1095v374h313v-374l-81 -688h-149zM232 0v289h298v-289h-298z" />
    <glyph glyph-name="quotedbl" unicode="&#x22;" horiz-adv-x="971" 
d="M167 1474h273l-48 -609h-180zM546 1474h273l-47 -609h-180z" />
    <glyph glyph-name="numbersign" unicode="#" 
d="M0 400l45 168h203l79 292h-204l45 168h204l109 403h199l-109 -403h166l106 403h199l-106 -403h201l-45 -168h-201l-81 -292h204l-45 -168h-204l-107 -400h-199l107 400h-164l-109 -400h-199l109 400h-203zM448 568h163l81 292h-166z" />
    <glyph glyph-name="dollar" unicode="$" 
d="M59 440h270q14 -126 39 -169q39 -67 153 -87v427l-81 24q-191 56 -269.5 156t-78.5 241q0 93 30.5 169t85.5 131q71 71 158 98q53 17 155 25v133h95v-135q163 -13 256 -80q169 -107 175 -347h-263q-8 89 -30 130q-38 71 -138 78v-381q238 -82 320 -145q135 -105 135 -296
q0 -252 -185 -366q-113 -70 -268 -82v-201h-97v199q-197 22 -294 86q-171 115 -168 392zM350 1064q0 -84 63 -133q35 -27 108 -50v351q-87 -2 -129 -46.5t-42 -121.5zM616 187q79 10 115 36q63 46 63 159q0 86 -59 136q-35 29 -119 60v-391z" />
    <glyph glyph-name="percent" unicode="%" horiz-adv-x="1821" 
d="M47 1071q0 154 109 263t263 109t263 -109t109 -263t-108.5 -263t-263.5 -109q-154 0 -263 109t-109 263zM260 1071q0 -66 46.5 -112.5t112.5 -46.5t112.5 46.5t46.5 112.5t-46.5 112.5t-112.5 46.5t-112.5 -46.5t-46.5 -112.5zM421 -38l811 1488h152l-808 -1488h-155z
M1019 343q0 155 109 263.5t263 108.5t263 -109t109 -263t-109 -263t-263 -109t-263 109t-109 263zM1232 343q0 -66 46.5 -112.5t112.5 -46.5t112.5 46.5t46.5 112.5t-46.5 112.5t-112.5 46.5t-112.5 -46.5t-46.5 -112.5z" />
    <glyph glyph-name="ampersand" unicode="&#x26;" horiz-adv-x="1479" 
d="M111 389q0 133 66 228t216 188l31 19q-64 72 -99 147t-35 156q0 161 108 251.5t280 90.5q157 0 259.5 -92.5t102.5 -236.5q0 -130 -61.5 -211t-180.5 -150l209 -258q36 52 55.5 113t20.5 129h253q-6 -134 -64 -271q-32 -77 -104 -170l268 -322h-346l-102 125
q-74 -69 -138 -102q-114 -59 -263 -59q-224 0 -350 132t-126 293zM395 398q0 -73 59.5 -134t152.5 -61q70 0 132.5 32.5t101.5 72.5l-270 334q-107 -71 -141.5 -125t-34.5 -119zM552 1137q0 -40 28 -84q18 -29 78 -103q60 42 86 71q50 54 50 117q0 46 -30 82t-91 36
q-38 0 -71 -21q-50 -31 -50 -98z" />
    <glyph glyph-name="quotesingle" unicode="'" horiz-adv-x="487" 
d="M99 1474h273l-50 -609h-173z" />
    <glyph glyph-name="parenleft" unicode="(" horiz-adv-x="682" 
d="M89 558q0 274 117 544q79 184 231 396h215l-61 -112q-126 -231 -175 -484q-32 -166 -32 -362q0 -306 89 -563q52 -152 184 -390h-211l-71 97q-69 88 -147 262q-139 311 -139 612z" />
    <glyph glyph-name="parenright" unicode=")" horiz-adv-x="682" 
d="M21 -413q132 238 184 390q89 257 89 563q0 196 -32 362q-49 253 -175 484l-61 112h215q152 -212 231 -396q117 -270 117 -544q0 -301 -139 -612q-78 -174 -147 -262l-71 -97h-211z" />
    <glyph glyph-name="asterisk" unicode="*" horiz-adv-x="797" 
d="M47 1161l47 149l209 -68v241h173v-241l209 68l47 -149l-213 -66l139 -199l-128 -91l-139 188l-143 -188l-128 91l140 199z" />
    <glyph glyph-name="plus" unicode="+" horiz-adv-x="1196" 
d="M73 412v261h410v410h263v-410h410v-261h-410v-412h-263v412h-410z" />
    <glyph glyph-name="comma" unicode="," horiz-adv-x="569" 
d="M118 0v298h308v-258q0 -68 -18 -142t-67 -128q-53 -58 -124.5 -87.5t-98.5 -29.5v110q86 24 126.5 80t46.5 157h-173z" />
    <glyph glyph-name="hyphen" unicode="-" horiz-adv-x="682" 
d="M47 436v270h574v-270h-574z" />
    <glyph glyph-name="period" unicode="." horiz-adv-x="569" 
d="M128 0v298h303v-298h-303z" />
    <glyph glyph-name="slash" unicode="/" horiz-adv-x="569" 
d="M-112 0l571 1519h237l-573 -1519h-235z" />
    <glyph glyph-name="zero" unicode="0" 
d="M64 711q0 359 111.5 554t388.5 195t388.5 -195t111.5 -554t-111.5 -553t-388.5 -194t-388.5 194t-111.5 553zM355 711q0 -250 41 -382.5t168 -132.5t166.5 132.5t39.5 382.5q0 262 -39.5 388t-166.5 126t-168 -126t-41 -388z" />
    <glyph glyph-name="one" unicode="1" 
d="M142 1000v194q135 6 189 18q86 19 140 76q37 39 56 104q11 39 11 58h237v-1450h-292v1000h-341z" />
    <glyph glyph-name="two" unicode="2" 
d="M64 0q4 156 67 285q61 145 288 307q197 141 255 202q89 95 89 208q0 92 -51 153t-146 61q-130 0 -177 -97q-27 -56 -32 -178h-277q7 185 67 299q114 217 405 217q230 0 366 -127.5t136 -337.5q0 -161 -96 -286q-63 -83 -207 -185l-114 -81q-107 -76 -146.5 -110
t-66.5 -79h633v-251h-993z" />
    <glyph glyph-name="three" unicode="3" 
d="M54 445h280q0 -87 28 -144q52 -105 189 -105q84 0 146.5 57.5t62.5 165.5q0 143 -116 191q-66 27 -208 27v204q139 2 194 27q95 42 95 170q0 83 -48.5 135t-136.5 52q-101 0 -148.5 -64t-45.5 -171h-266q4 108 37 205q35 85 110 157q56 51 133 78t189 27
q208 0 335.5 -107.5t127.5 -288.5q0 -128 -76 -216q-48 -55 -100 -75q39 0 112 -67q109 -101 109 -276q0 -184 -127.5 -323.5t-377.5 -139.5q-308 0 -428 201q-63 107 -70 280z" />
    <glyph glyph-name="four" unicode="4" 
d="M54 312v249l533 880h320v-906h164v-223h-164v-312h-279v312h-574zM265 535h363v626z" />
    <glyph glyph-name="five" unicode="5" 
d="M54 388h284q17 -93 65 -143.5t140 -50.5q106 0 161.5 74.5t55.5 187.5q0 111 -52 187.5t-162 76.5q-52 0 -90 -13q-67 -24 -101 -89l-256 12l102 801h799v-242h-593l-52 -317q66 43 103 57q62 23 151 23q180 0 314 -121t134 -352q0 -201 -129 -359t-386 -158
q-207 0 -340 111t-148 315z" />
    <glyph glyph-name="six" unicode="6" 
d="M64 653q0 166 14 270q25 185 97 308q62 105 162.5 169t240.5 64q202 0 322 -103.5t135 -275.5h-284q0 35 -27 77q-46 68 -139 68q-139 0 -198 -156q-32 -86 -44 -254q53 63 123 92t160 29q193 0 316.5 -131t123.5 -335q0 -203 -121 -358t-376 -155q-274 0 -404 229
q-101 179 -101 462zM350 459q0 -117 63 -191t160 -74q95 0 149.5 71.5t54.5 185.5q0 127 -62 194.5t-152 67.5q-73 0 -129 -44q-84 -65 -84 -210z" />
    <glyph glyph-name="seven" unicode="7" 
d="M52 1175l4 256h1024v-223q-64 -63 -178 -224.5t-191 -333.5q-61 -135 -110 -330t-49 -320h-296q13 390 256 811q157 261 263 364h-723z" />
    <glyph glyph-name="eight" unicode="8" 
d="M54 402q0 122 55.5 221t162.5 149q-105 70 -136.5 151.5t-31.5 152.5q0 158 119 269.5t336 111.5t336 -111.5t119 -269.5q0 -71 -31.5 -152.5t-136.5 -141.5q107 -60 161 -159t54 -221q0 -183 -135.5 -311.5t-378.5 -128.5t-368 128.5t-125 311.5zM350 421
q0 -107 55.5 -166t153.5 -59t153.5 59t55.5 166q0 111 -56.5 168.5t-152.5 57.5t-152.5 -57.5t-56.5 -168.5zM376 1044q0 -79 48.5 -129t134.5 -50q87 0 134.5 50t47.5 129q0 86 -47.5 134.5t-134.5 48.5q-86 0 -134.5 -48.5t-48.5 -134.5z" />
    <glyph glyph-name="nine" unicode="9" 
d="M61 940q0 233 134.5 377.5t349.5 144.5q331 0 454 -293q70 -166 70 -437q0 -263 -67 -439q-128 -335 -470 -335q-163 0 -293 96.5t-149 281.5h284q10 -64 54 -104t117 -40q141 0 198 156q31 86 39 251q-39 -49 -83 -75q-80 -48 -197 -48q-173 0 -307 119.5t-134 344.5z
M350 966q0 -129 52.5 -193.5t161.5 -64.5q59 0 111 34q97 62 97 215q0 123 -57.5 195t-157.5 72q-73 0 -125 -41q-82 -64 -82 -217z" />
    <glyph glyph-name="colon" unicode=":" horiz-adv-x="682" 
d="M232 0v298h303v-298h-303zM232 749v298h303v-298h-303z" />
    <glyph glyph-name="semicolon" unicode=";" horiz-adv-x="682" 
d="M232 0v298h308v-258q0 -69 -18 -142.5t-67 -127.5q-51 -57 -123 -87t-100 -30v110q101 29 141 103q25 46 32 134h-173zM232 749v298h303v-298h-303z" />
    <glyph glyph-name="less" unicode="&#x3c;" horiz-adv-x="1196" 
d="M23 414v256l1178 448v-279l-841 -297l841 -298v-278z" />
    <glyph glyph-name="equal" unicode="=" horiz-adv-x="1196" 
d="M73 177v263h1083v-263h-1083zM73 644v263h1083v-263h-1083z" />
    <glyph glyph-name="greater" unicode="&#x3e;" horiz-adv-x="1196" 
d="M23 -34v278l842 298l-842 297v279l1178 -450v-254z" />
    <glyph glyph-name="question" unicode="?" horiz-adv-x="1251" 
d="M123 1009q12 285 199 404q118 76 290 76q226 0 375.5 -108t149.5 -320q0 -130 -65 -219q-38 -54 -146 -138l-71 -55q-58 -45 -77 -105q-12 -38 -13 -118h-270q6 169 32 233.5t134 148.5l73 57q36 27 58 59q40 55 40 121q0 76 -44.5 138.5t-162.5 62.5q-116 0 -164.5 -77
t-48.5 -160h-289zM488 0v289h298v-289h-298z" />
    <glyph glyph-name="at" unicode="@" horiz-adv-x="1997" 
d="M199 724q0 328 236 556q248 241 635 241q315 0 522 -165q218 -174 218 -462q0 -227 -138 -389.5t-315 -162.5q-92 0 -141.5 52t-49.5 107q0 7 0.5 15.5t1.5 18.5q-38 -72 -85 -115q-85 -77 -204 -77q-121 0 -201.5 87t-80.5 243q0 181 123 339t302 158q105 0 163 -58
q44 -45 59 -103l36 126h189l-128 -434q-15 -53 -21.5 -78.5t-6.5 -44.5q0 -30 20 -56.5t64 -26.5q86 0 172.5 112.5t86.5 298.5q0 275 -236 395q-148 76 -333 76q-340 0 -546 -208q-186 -188 -186 -451q0 -292 218 -463q193 -151 471 -151q190 0 355 70q90 37 186 105l24 17
l73 -112q-142 -110 -307.5 -167.5t-343.5 -57.5q-415 0 -643 258q-189 214 -189 507zM815 653q0 -73 33.5 -118t94.5 -45q107 0 175.5 162.5t68.5 255.5q0 53 -32 89t-86 36q-104 0 -179 -129.5t-75 -250.5z" />
    <glyph glyph-name="A" unicode="A" horiz-adv-x="1479" 
d="M52 0l526 1474h348l522 -1474h-334l-95 303h-543l-102 -303h-322zM559 557h374l-184 580zM750 1474z" />
    <glyph glyph-name="B" unicode="B" horiz-adv-x="1479" 
d="M161 0v1474h716q271 -4 384 -157q68 -94 68 -225q0 -135 -68 -217q-38 -46 -112 -84q113 -41 170.5 -130t57.5 -216q0 -131 -66 -235q-42 -69 -105 -116q-71 -54 -167.5 -74t-209.5 -20h-668zM455 256h362q97 0 151 26q98 48 98 184q0 115 -95 158q-53 24 -149 25h-367
v-393zM455 893h362q97 0 157.5 36.5t60.5 129.5q0 103 -80 136q-69 23 -176 23h-324v-325z" />
    <glyph glyph-name="C" unicode="C" horiz-adv-x="1479" 
d="M92 725q0 386 207 595q180 182 458 182q372 0 544 -244q95 -137 102 -275h-308q-30 106 -77 160q-84 96 -249 96q-168 0 -265 -135.5t-97 -383.5t102.5 -371.5t260.5 -123.5q162 0 247 106q47 57 78 171h305q-40 -241 -204.5 -392t-421.5 -151q-318 0 -500 204
q-182 205 -182 562zM748 1519z" />
    <glyph glyph-name="D" unicode="D" horiz-adv-x="1479" 
d="M156 0v1474h635q137 -2 228 -32q155 -51 251 -187q77 -110 105 -238t28 -244q0 -294 -118 -498q-160 -275 -494 -275h-635zM455 256h284q218 0 304 215q47 118 47 281q0 225 -70.5 345.5t-280.5 120.5h-284v-962z" />
    <glyph glyph-name="E" unicode="E" horiz-adv-x="1366" 
d="M165 0v1474h1081v-261h-780v-313h716v-256h-716v-379h816v-265h-1117z" />
    <glyph glyph-name="F" unicode="F" horiz-adv-x="1251" 
d="M156 0v1472h1045v-259h-739v-339h647v-256h-647v-618h-306z" />
    <glyph glyph-name="G" unicode="G" horiz-adv-x="1593" 
d="M85 722q0 358 197 574t521 216q281 0 451.5 -142.5t195.5 -355.5h-303q-35 151 -171 211q-76 33 -169 33q-178 0 -292.5 -134.5t-114.5 -404.5q0 -272 124 -385t282 -113q155 0 254 89.5t122 234.5h-341v246h614v-791h-204l-31 184q-89 -105 -160 -148q-122 -75 -300 -75
q-293 0 -480 203q-195 204 -195 558zM802 1512z" />
    <glyph glyph-name="H" unicode="H" horiz-adv-x="1479" 
d="M154 0v1474h305v-562h576v562h306v-1474h-306v658h-576v-658h-305z" />
    <glyph glyph-name="I" unicode="I" horiz-adv-x="569" 
d="M132 0v1474h306v-1474h-306zM285 1503z" />
    <glyph glyph-name="J" unicode="J" 
d="M45 525v34h291v-34q4 -171 37.5 -240.5t143.5 -69.5q109 0 144 76q21 45 21 152v1031h308v-1026q0 -188 -65 -298q-110 -186 -397 -186t-385 150.5t-98 410.5z" />
    <glyph glyph-name="K" unicode="K" horiz-adv-x="1479" 
d="M161 0v1474h303v-607l569 607h398l-604 -607l635 -867h-396l-455 644l-147 -151v-493h-303z" />
    <glyph glyph-name="L" unicode="L" horiz-adv-x="1251" 
d="M156 0v1474h308v-1209h730v-265h-1038z" />
    <glyph glyph-name="M" unicode="M" horiz-adv-x="1706" 
d="M151 0v1474h448l268 -1159l266 1159h443v-1474h-287v997q0 43 1 120.5t1 119.5l-279 -1237h-299l-277 1237q0 -42 1 -119.5t1 -120.5v-997h-287z" />
    <glyph glyph-name="N" unicode="N" horiz-adv-x="1479" 
d="M151 0v1474h323l587 -1029v1029h287v-1474h-308l-602 1047v-1047h-287zM761 1477z" />
    <glyph glyph-name="O" unicode="O" horiz-adv-x="1593" 
d="M101 739q0 405 224 608q167 172 483 172t483 -172q223 -203 223 -608q0 -397 -223 -608q-167 -172 -483 -172t-483 172q-224 211 -224 608zM407 739q0 -249 109 -384t292 -135t290.5 135t107.5 384q0 248 -107.5 383.5t-290.5 135.5t-292 -135t-109 -384zM808 1519z" />
    <glyph glyph-name="P" unicode="P" horiz-adv-x="1366" 
d="M163 0v1474h642q222 0 354 -114t132 -353q0 -261 -132 -369t-377 -108h-313v-530h-306zM469 784h287q109 0 169.5 53t60.5 168t-60.5 164t-169.5 49h-287v-434z" />
    <glyph glyph-name="Q" unicode="Q" horiz-adv-x="1593" 
d="M101 739q0 404 234 611q191 169 475 169q286 0 480 -179q224 -207 224 -579q0 -197 -48 -330q-39 -127 -115 -211l170 -159l-161 -168l-178 168q-81 -49 -140 -69q-99 -33 -237 -33q-288 0 -476 172q-228 207 -228 608zM407 739q0 -303 156 -434q101 -85 242 -85
q53 0 102 13q27 7 69 25l-149 142l159 166l149 -142q35 72 49 126q22 81 22 189q0 248 -101.5 383.5t-296.5 135.5q-183 0 -292 -130t-109 -389z" />
    <glyph glyph-name="R" unicode="R" horiz-adv-x="1479" 
d="M163 0v1474h723q155 -3 238.5 -38t141.5 -103q48 -56 76 -124t28 -155q0 -105 -53 -206.5t-175 -143.5q102 -41 144.5 -116.5t42.5 -230.5v-99q0 -101 8 -137q12 -57 56 -84v-37h-339q-14 49 -20 79q-12 62 -13 127l-2 137q-2 141 -51.5 188t-185.5 47h-318v-578h-301z
M464 822h349q104 0 156 24q92 42 92 166q0 134 -89 180q-50 26 -150 26h-358v-396z" />
    <glyph glyph-name="S" unicode="S" horiz-adv-x="1366" 
d="M85 455h294q14 -101 55 -151q75 -91 257 -91q109 0 177 24q129 46 129 171q0 73 -64 113q-64 39 -201 69l-156 35q-230 52 -318 113q-149 102 -149 319q0 198 144 329t423 131q233 0 397.5 -123.5t172.5 -358.5h-296q-8 133 -116 189q-72 37 -179 37q-119 0 -190 -48
t-71 -134q0 -79 70 -118q45 -26 192 -61l254 -61q167 -40 252 -107q132 -104 132 -301q0 -202 -154.5 -335.5t-436.5 -133.5q-288 0 -453 131.5t-165 361.5zM678 1519z" />
    <glyph glyph-name="T" unicode="T" horiz-adv-x="1251" 
d="M33 1213v261h1194v-261h-441v-1213h-310v1213h-443z" />
    <glyph glyph-name="U" unicode="U" horiz-adv-x="1479" 
d="M156 568v906h313v-906q0 -152 36 -222q56 -124 244 -124q187 0 243 124q36 70 36 222v906h313v-906q0 -235 -73 -366q-136 -240 -519 -240t-520 240q-73 131 -73 366zM749 1474z" />
    <glyph glyph-name="V" unicode="V" horiz-adv-x="1366" 
d="M47 1474h329l320 -1119l323 1119h320l-503 -1474h-291z" />
    <glyph glyph-name="W" unicode="W" horiz-adv-x="1933" 
d="M30 1474h327l195 -844l42 -235l43 230l166 849h325l175 -844l45 -235l45 226l197 853h313l-415 -1474h-294l-178 862l-52 285l-52 -285l-178 -862h-286z" />
    <glyph glyph-name="X" unicode="X" horiz-adv-x="1366" 
d="M33 0l474 751l-451 723h368l263 -479l270 479h356l-451 -711l479 -763h-374l-280 502l-296 -502h-358z" />
    <glyph glyph-name="Y" unicode="Y" horiz-adv-x="1366" 
d="M35 1474h363l306 -642l293 642h349l-493 -920v-554h-308v554zM691 1474z" />
    <glyph glyph-name="Z" unicode="Z" horiz-adv-x="1251" 
d="M52 0v260l761 953h-742v261h1126v-247l-771 -967h773v-260h-1147zM634 1474z" />
    <glyph glyph-name="bracketleft" unicode="[" horiz-adv-x="682" 
d="M128 -394v1882h502v-208h-232v-1465h232v-209h-502z" />
    <glyph glyph-name="backslash" unicode="\" horiz-adv-x="569" 
d="M-112 1519h235l573 -1519h-237z" />
    <glyph glyph-name="bracketright" unicode="]" horiz-adv-x="682" 
d="M47 -185h232v1469h-232v204h502v-1882h-502v209z" />
    <glyph glyph-name="asciicircum" unicode="^" horiz-adv-x="1196" 
d="M139 590l368 884h225l367 -884h-251l-227 566l-230 -566h-252z" />
    <glyph glyph-name="underscore" unicode="_" 
d="M0 -155h1139v-101h-1139v101z" />
    <glyph glyph-name="grave" unicode="`" horiz-adv-x="682" 
d="M-50 1536h317l192 -299h-206zM290 1119z" />
    <glyph glyph-name="a" unicode="a" 
d="M59 290q0 201 155 291q85 49 250 70l97 12q79 10 113 25q61 26 61 81q0 67 -46.5 92.5t-136.5 25.5q-101 0 -143 -50q-30 -37 -40 -100h-275q9 143 80 235q113 144 388 144q179 0 318 -71t139 -268v-500q0 -52 2 -126q3 -56 17 -76t42 -33v-42h-310q-13 33 -18 62t-8 66
q-59 -64 -136 -109q-92 -53 -208 -53q-148 0 -244.5 84.5t-96.5 239.5zM345 311q0 -73 40.5 -105.5t98.5 -32.5q92 0 169.5 54t80.5 197v106q-27 -17 -54.5 -27.5t-75.5 -19.5l-64 -12q-90 -16 -129 -39q-66 -39 -66 -121zM576 1119z" />
    <glyph glyph-name="b" unicode="b" horiz-adv-x="1251" 
d="M123 0v1472h284v-524q54 76 119 116q77 50 196 50q215 0 336.5 -155t121.5 -400q0 -254 -120 -421t-335 -167q-135 0 -217 54q-49 32 -106 112v-137h-279zM398 530q0 -140 62 -232t189 -92q110 0 171 89t61 234q0 116 -30 192q-57 144 -210 144q-155 0 -213 -141
q-30 -75 -30 -194z" />
    <glyph glyph-name="c" unicode="c" 
d="M71 523q0 281 137 437t378 156q205 0 335.5 -92t154.5 -325h-292q-8 61 -41 110q-48 66 -149 66q-144 0 -197 -143q-28 -76 -28 -202q0 -120 28 -193q51 -136 192 -136q100 0 142 54t51 140h291q-10 -130 -94 -246q-134 -187 -397 -187t-387 156t-124 405zM591 1119z" />
    <glyph glyph-name="d" unicode="d" horiz-adv-x="1251" 
d="M63 517q0 279 128.5 439t343.5 160q99 0 176 -43.5t125 -120.5v520h289v-1472h-277v151q-61 -97 -139 -141t-194 -44q-191 0 -321.5 154.5t-130.5 396.5zM357 538q0 -151 59.5 -241.5t180.5 -90.5t184 90t63 233q0 200 -101 286q-62 52 -144 52q-125 0 -183.5 -94.5
t-58.5 -234.5z" />
    <glyph glyph-name="e" unicode="e" 
d="M47 534q0 283 143.5 434t372.5 151q136 0 245 -51t180 -161q64 -97 83 -225q9 -63 9 -174v-42h-746q6 -164 103 -230q59 -41 142 -41q88 0 143 50q30 27 53 75h291q-11 -97 -101 -197q-140 -159 -392 -159q-208 0 -367 134t-159 436zM341 654h443q-7 113 -68.5 171.5
t-152.5 58.5q-99 0 -153.5 -62t-68.5 -168zM583 1119z" />
    <glyph glyph-name="f" unicode="f" horiz-adv-x="682" 
d="M21 879v201h156v70q0 175 59 241q62 98 299 98q27 0 49 -1.5t60 -4.5v-232q-24 3 -80 5h-6q-52 0 -72 -26q-22 -26 -22 -58v-92h187v-201h-187v-879h-284v879h-159z" />
    <glyph glyph-name="g" unicode="g" horiz-adv-x="1251" 
d="M66 542q0 243 121 408.5t343 165.5q82 0 143 -25q104 -43 168 -158v157h277v-1034q0 -211 -71 -318q-122 -184 -468 -184q-209 0 -341 82t-146 245h310q12 -50 39 -72q46 -39 155 -39q154 0 206 103q34 66 34 222v70q-41 -70 -88 -105q-85 -65 -221 -65
q-210 0 -335.5 147.5t-125.5 399.5zM361 541q0 -95 32 -169q58 -138 208 -138q100 0 169 75.5t69 240.5q0 155 -65.5 236t-175.5 81q-150 0 -207 -141q-30 -75 -30 -185zM621 1119z" />
    <glyph glyph-name="h" unicode="h" horiz-adv-x="1251" 
d="M135 0v1469h284v-521q62 95 143.5 132.5t171.5 37.5q101 0 183.5 -35t135.5 -107q45 -61 55 -125.5t10 -210.5v-640h-291v663q0 88 -30 142q-39 76 -148 76q-113 0 -171.5 -75.5t-58.5 -215.5v-590h-284z" />
    <glyph glyph-name="i" unicode="i" horiz-adv-x="569" 
d="M137 0v1090h289v-1090h-289zM137 1220v263h289v-263h-289z" />
    <glyph glyph-name="j" unicode="j" horiz-adv-x="569" 
d="M9 -209q24 -2 34 -2.5t18 -0.5q42 0 63.5 20.5t21.5 79.5v1197h285v-1202q0 -165 -65 -244t-255 -79q-13 0 -38.5 1t-63.5 2v228zM146 1220v263h285v-263h-285z" />
    <glyph glyph-name="k" unicode="k" 
d="M130 0v1469h280v-794l355 410h353l-381 -417l396 -668h-344l-261 466l-118 -123v-343h-280z" />
    <glyph glyph-name="l" unicode="l" horiz-adv-x="569" 
d="M139 0v1474h285v-1474h-285z" />
    <glyph glyph-name="m" unicode="m" horiz-adv-x="1821" 
d="M128 0v1088h277v-159q53 85 100 121q83 64 215 64q125 0 202 -55q62 -51 94 -131q56 96 139 141q88 45 196 45q72 0 142 -28t127 -98q46 -57 62 -140q10 -55 10 -161l-2 -687h-292v694q0 62 -20 102q-38 76 -140 76q-118 0 -163 -98q-23 -52 -23 -125v-649h-287v649
q0 97 -20 141q-36 79 -141 79q-122 0 -164 -79q-23 -45 -23 -134v-656h-289z" />
    <glyph glyph-name="n" unicode="n" horiz-adv-x="1251" 
d="M135 0v1088h275v-159q55 84 104 121q88 66 223 66q169 0 276.5 -88.5t107.5 -293.5v-734h-292v663q0 86 -23 132q-42 84 -160 84q-145 0 -199 -123q-28 -65 -28 -166v-590h-284zM632 1119z" />
    <glyph glyph-name="o" unicode="o" horiz-adv-x="1251" 
d="M66 543q0 236 138 409t419 173t419 -173t138 -409q0 -240 -138 -410.5t-419 -170.5t-419 170.5t-138 410.5zM362 543q0 -164 67.5 -253t192.5 -89t192 89t67 253t-67 252.5t-192 88.5t-192.5 -88.5t-67.5 -252.5zM623 1119z" />
    <glyph glyph-name="p" unicode="p" horiz-adv-x="1251" 
d="M125 -429v1519h273v-161q46 71 98 112q95 73 226 73q191 0 323.5 -141t132.5 -414q0 -288 -129.5 -439t-333.5 -151q-130 0 -216 65q-47 36 -92 105v-568h-282zM397 520q0 -190 101 -267q60 -45 142 -45q119 0 181.5 92t62.5 245q0 126 -57.5 223t-186.5 97
q-155 0 -213 -147q-30 -78 -30 -198z" />
    <glyph glyph-name="q" unicode="q" horiz-adv-x="1251" 
d="M60 520q0 272 133.5 435t329.5 163q136 0 220 -67q49 -38 100 -125v162h275v-1520h-282v567q-32 -66 -109.5 -117.5t-211.5 -51.5q-189 0 -322 151t-133 403zM357 532q0 -113 30 -185q56 -137 208 -137q147 0 209 126q40 83 40 210q0 100 -34 179q-61 142 -214 142
q-108 0 -173.5 -83t-65.5 -252z" />
    <glyph glyph-name="r" unicode="r" horiz-adv-x="797" 
d="M130 0v1090h272v-190q66 109 115 149q80 67 208 67q8 0 13.5 -0.5t24.5 -1.5v-292q-27 3 -48 4t-34 1q-172 0 -231 -112q-33 -63 -33 -194v-521h-287z" />
    <glyph glyph-name="s" unicode="s" 
d="M66 348h289q9 -76 39 -108q53 -57 196 -57q84 0 133.5 25t49.5 75q0 48 -40 73t-297 86q-185 46 -261 115q-76 68 -76 196q0 151 118.5 259.5t333.5 108.5q204 0 332.5 -81.5t147.5 -281.5h-285q-6 55 -31 87q-47 58 -160 58q-93 0 -132.5 -29t-39.5 -68q0 -49 42 -71
q42 -23 297 -79q170 -40 255 -121q84 -82 84 -205q0 -162 -120.5 -264.5t-372.5 -102.5q-257 0 -379.5 108.5t-122.5 276.5zM573 1119z" />
    <glyph glyph-name="t" unicode="t" horiz-adv-x="682" 
d="M21 877v203h152v304h282v-304h177v-203h-177v-576q0 -67 17 -83.5t104 -16.5q13 0 27.5 0.5t28.5 1.5v-213l-135 -5q-17 -1 -33 -1q-175 0 -243 71q-48 49 -48 151v671h-152z" />
    <glyph glyph-name="u" unicode="u" horiz-adv-x="1251" 
d="M125 433v657h292v-657q0 -93 22 -140q39 -83 153 -83q146 0 200 118q28 64 28 169v593h289v-1090h-277v154q-4 -5 -20 -30t-38 -44q-67 -60 -129.5 -82t-146.5 -22q-242 0 -326 174q-47 96 -47 283zM617 1119z" />
    <glyph glyph-name="v" unicode="v" 
d="M26 1090h320l227 -804l232 804h306l-393 -1090h-301z" />
    <glyph glyph-name="w" unicode="w" horiz-adv-x="1593" 
d="M14 1090h306l170 -782l157 782h289l166 -785l170 785h297l-316 -1090h-293l-171 794l-173 -794h-296z" />
    <glyph glyph-name="x" unicode="x" 
d="M26 0l372 552l-356 536h349l182 -316l178 316h339l-358 -531l372 -557h-355l-188 327l-189 -327h-346z" />
    <glyph glyph-name="y" unicode="y" 
d="M21 1090h317l238 -804l225 804h303l-374 -1072q-108 -310 -171 -384.5t-252 -74.5q-38 0 -61 0.5t-69 3.5v228l36 -2q12 -1 24 -1q29 0 56 4q38 5 64 23q25 17 47 71q18 46 18 61q0 3 -1 5zM563 1119z" />
    <glyph glyph-name="z" unicode="z" horiz-adv-x="1024" 
d="M33 0v222l559 636h-521v232h884v-237l-553 -619h572v-234h-941zM513 1119z" />
    <glyph glyph-name="braceleft" unicode="{" horiz-adv-x="797" 
d="M0 483v121q97 33 137 73q71 69 71 211v268q0 51 17 107q30 97 102 154q66 52 155 69q54 11 155 12v-159q-83 -18 -113 -48q-46 -46 -46 -161v-232q0 -112 -30 -178q-51 -111 -200 -180q135 -55 181.5 -128t48.5 -202v-253q0 -111 54 -160q30 -29 105 -51v-159l-71 2
q-143 4 -250.5 85.5t-107.5 237.5v313q0 126 -76 193q-46 41 -132 65z" />
    <glyph glyph-name="bar" unicode="|" horiz-adv-x="573" 
d="M106 0v1488h263v-1488h-263z" />
    <glyph glyph-name="braceright" unicode="}" horiz-adv-x="797" 
d="M45 -254q75 22 105 52q51 50 53 159v253q0 142 55 210.5t175 119.5q-131 64 -180.5 145.5t-49.5 212.5v232q0 111 -35.5 151t-122.5 58v159q100 -1 154 -12q89 -17 156 -69t93 -128t26 -133v-268q0 -143 65 -210q40 -40 143 -74v-121q-85 -24 -129 -62q-79 -68 -79 -196
v-313q0 -152 -105 -235.5t-253 -87.5l-71 -2v159z" />
    <glyph glyph-name="asciitilde" unicode="~" horiz-adv-x="1196" 
d="M4 305q17 119 48.5 205t77.5 141q49 58 101 81.5t107 23.5q24 0 63 -6q62 -10 115 -30l233 -90q41 -16 79.5 -22.5t59.5 -6.5q66 0 105 51.5t57 124.5h170q-27 -186 -110.5 -319t-225.5 -133q-28 0 -59 5q-60 9 -142 43l-209 79q-29 11 -71 20t-62 9q-57 0 -101 -43.5
t-63 -132.5h-173z" />
    <glyph glyph-name="uni00A0" unicode="&#xa0;" horiz-adv-x="569" 
 />
    <glyph glyph-name="exclamdown" unicode="&#xa1;" horiz-adv-x="682" 
d="M225 -10l80 687h150l83 -687v-374h-313v374zM232 796v289h298v-289h-298z" />
    <glyph glyph-name="cent" unicode="&#xa2;" 
d="M69 528q0 269 140 428.5t358 159.5q46 0 64.5 -2t48.5 -8l50 181h106l-59 -202q108 -37 175 -104q104 -102 124 -282h-292q-11 60 -36 99q-15 26 -40 43l-175 -635q16 -3 28 -5t26 -2q68 0 124 47t71 149h291q-17 -187 -133.5 -311.5t-378.5 -124.5q-30 0 -49 2t-48 5
l-59 -211h-112l74 242q-126 48 -212 184.5t-86 346.5zM367 533q0 -117 24.5 -183.5t51.5 -91.5l170 614q-17 2 -35 2q-100 0 -155.5 -102t-55.5 -239z" />
    <glyph glyph-name="sterling" unicode="&#xa3;" 
d="M66 175q72 39 149 125.5t77 169.5q0 44 -16 100q-9 32 -30 86h-178v112h114q-46 90 -68 158.5t-22 147.5q0 154 127.5 276t363.5 122q196 0 340 -108.5t153 -366.5h-271q-10 99 -46 160q-53 85 -179 85q-93 0 -147 -57.5t-54 -132.5q0 -45 19 -94.5t85 -189.5h287v-112
h-244q4 -39 6.5 -65t2.5 -52q0 -96 -58 -178q-37 -51 -150 -155q80 29 118 38q61 16 119 16q36 0 70.5 -6t73.5 -17l41 -13q27 -9 45.5 -11.5t31.5 -2.5q46 0 108 26q36 15 90 46l82 -223q-50 -33 -140 -64t-173 -31q-44 0 -92 11t-104 29l-57 19q-37 12 -61 18q-40 8 -82 8
q-45 0 -97 -18q-34 -13 -125 -55z" />
    <glyph glyph-name="currency" unicode="&#xa4;" 
d="M54 342l140 140q-71 115 -71 235t71 235l-140 140l140 140l140 -140q115 71 235 71t235 -71l140 140l140 -140l-140 -140q71 -115 71 -235t-71 -235l140 -140l-140 -140l-140 140q-115 -71 -235 -71t-235 71l-140 -140zM335 717q0 -98 68 -166t166 -68t166 68t68 166
t-68 166t-166 68t-166 -68t-68 -166z" />
    <glyph glyph-name="yen" unicode="&#xa5;" 
d="M-22 1431h339l266 -623l253 623h325l-228 -471h143v-136h-209l-107 -218h282v-135h-320v-471h-291v471h-318v135h280l-109 218h-213v136h147z" />
    <glyph glyph-name="brokenbar" unicode="&#xa6;" horiz-adv-x="573" 
d="M106 0v587h263v-587h-263zM106 903v585h263v-585h-263z" />
    <glyph glyph-name="section" unicode="&#xa7;" 
d="M65 573q0 125 72 207q42 49 119 89q-32 22 -69 80q-38 72 -38 160q0 149 106.5 257t310.5 108q244 0 346 -160q55 -86 64 -215h-258q-7 60 -30 95q-41 62 -135 62q-63 0 -103 -30.5t-40 -89.5q0 -68 70 -102t257 -120q326 -154 326 -357q0 -127 -74 -210
q-41 -46 -120 -87q56 -48 82 -90q46 -73 46 -172q0 -191 -132 -291.5t-296 -100.5q-178 0 -302.5 89t-141.5 295h270q14 -74 40 -107q43 -56 141 -56q60 0 103 37t43 96q0 53 -45 93t-255 146q-183 90 -250 148q-107 93 -107 226zM307 645q0 -49 43 -87q25 -23 88 -56
l284 -149q33 14 56 41q36 39 36 93q0 45 -48 86q-26 21 -72 45l-299 152q-52 -22 -74 -65q-14 -28 -14 -60z" />
    <glyph glyph-name="dieresis" unicode="&#xa8;" horiz-adv-x="682" 
d="M-43 1256v237h261v-237h-261zM288 1119zM357 1256v237h261v-237h-261z" />
    <glyph glyph-name="copyright" unicode="&#xa9;" horiz-adv-x="1509" 
d="M26 737q0 323 230 537q216 200 507 200q305 0 521 -216t216 -521q0 -314 -221 -529q-215 -208 -516 -208q-311 0 -524 213t-213 524zM154 737q0 -256 179 -435q178 -179 430 -179q251 0 429 180q178 181 178 434q0 246 -177 427q-179 184 -430 184q-254 0 -433 -184
q-176 -180 -176 -427zM368 735q0 182 105.5 310t289.5 128q117 0 203 -48q140 -78 174 -273l-188 3q-17 90 -72 121q-46 29 -101 29q-83 0 -136 -68.5t-53 -206.5q0 -137 58.5 -199t140.5 -62q75 0 113.5 41t49.5 103h183q-30 -174 -135.5 -243.5t-218.5 -69.5
q-168 0 -290.5 120t-122.5 315z" />
    <glyph glyph-name="ordfeminine" unicode="&#xaa;" horiz-adv-x="758" 
d="M40 1021q0 108 82 166q54 38 167 52l128 17q28 3 46 16.5t18 37.5q0 47 -47 64q-27 10 -74 10q-53 0 -79 -22.5t-37 -67.5h-180q12 91 54 142q70 83 237 83q123 0 188 -24q120 -45 120 -195v-322q0 -39 8 -65.5t33 -35.5v-36h-200q-7 17 -11.5 34.5t-4.5 41.5
q-52 -45 -87 -64q-62 -33 -136 -33q-137 0 -192 85q-33 49 -33 116zM226 1036q0 -40 27 -60.5t69 -20.5q35 0 75 16q26 12 41 26q19 14 29.5 34t13.5 75v64q-18 -12 -32.5 -17.5t-46.5 -10.5l-47 -7q-72 -11 -100.5 -36t-28.5 -63z" />
    <glyph glyph-name="guillemotleft" unicode="&#xab;" 
d="M175 444v238l342 294v-238l-204 -175l204 -174v-238zM618 444v238l342 294v-238l-204 -175l204 -174v-238z" />
    <glyph glyph-name="logicalnot" unicode="&#xac;" horiz-adv-x="1196" 
d="M73 644v263h1083v-730h-263v467h-820z" />
    <glyph glyph-name="uni00AD" unicode="&#xad;" horiz-adv-x="682" 
d="M47 436v270h574v-270h-574z" />
    <glyph glyph-name="registered" unicode="&#xae;" horiz-adv-x="1509" 
d="M26 737q0 323 230 537q216 200 507 200q305 0 521 -216t216 -521q0 -314 -221 -529q-215 -208 -516 -208q-311 0 -524 213t-213 524zM154 737q0 -256 179 -435q178 -179 430 -179q251 0 429 180q178 181 178 434q0 246 -177 427q-179 184 -430 184q-254 0 -433 -184
q-176 -180 -176 -427zM440 327v817q76 0 227.5 -0.5t168.5 -1.5q97 -7 161 -42q109 -60 109 -195q0 -103 -57.5 -149t-141.5 -55q77 -16 116 -47q72 -58 72 -183v-73q0 -12 1.5 -24t5.5 -24l7 -23h-204q-10 39 -13 113t-13 100q-16 43 -60 60q-24 10 -73 13l-47 3h-45v-289
h-214zM654 763h83q75 0 117 30t42 97t-66 93q-44 17 -124 17h-52v-237z" />
    <glyph glyph-name="macron" unicode="&#xaf;" horiz-adv-x="682" 
d="M-67 1301v152h711v-152h-711z" />
    <glyph glyph-name="degree" unicode="&#xb0;" horiz-adv-x="819" 
d="M94 1137q0 132 95.5 227.5t227.5 95.5t227.5 -95.5t95.5 -227.5t-95.5 -227.5t-227.5 -95.5t-227.5 95.5t-95.5 227.5zM256 1137q0 -67 47 -114t114 -47t114 47t47 114t-47 114t-114 47t-114 -47t-47 -114z" />
    <glyph glyph-name="plusminus" unicode="&#xb1;" horiz-adv-x="1124" 
d="M73 0v246h1083v-246h-1083zM73 566v244h410v273h263v-273h410v-244h-410v-256h-263v256h-410z" />
    <glyph glyph-name="uni00B2" unicode="&#xb2;" horiz-adv-x="682" 
d="M26 580q0 205 228 359q142 96 184.5 143.5t42.5 105.5q0 62 -35 94.5t-93 32.5q-86 0 -115 -53q-18 -32 -20 -110h-181q3 156 85 232t228 76q135 0 227.5 -74t92.5 -204q0 -83 -46 -150.5t-153 -136.5l-73 -45q-44 -28 -70 -48q-55 -40 -68 -65h410v-157h-644z" />
    <glyph glyph-name="uni00B3" unicode="&#xb3;" horiz-adv-x="682" 
d="M18 853h183q4 -64 22 -94q33 -55 120 -55q37 0 71 18q64 34 64 117q0 82 -64 109q-39 17 -147 21v121q89 2 125 17q63 27 63 104q0 54 -35 82.5t-87 28.5q-60 0 -92.5 -39.5t-32.5 -102.5h-171q-5 135 94 220q75 60 210 60q138 0 219.5 -65.5t81.5 -171.5
q0 -65 -31 -107.5t-83 -68.5q55 -8 98.5 -55t43.5 -145q0 -134 -92.5 -207.5t-221.5 -73.5q-153 0 -245.5 67.5t-92.5 219.5z" />
    <glyph glyph-name="acute" unicode="&#xb4;" horiz-adv-x="682" 
d="M118 1237l192 299h318l-304 -299h-206zM287 1119z" />
    <glyph glyph-name="uni00B5" unicode="&#xb5;" horiz-adv-x="1180" 
d="M-53 -475l285 1565h289l-130 -728q-1 -7 -2 -15t-1 -16q0 -68 48.5 -94.5t97.5 -26.5q72 0 134 41.5t97 98.5q24 39 41 105t44 211l79 424h284l-194 -1088h-263l28 182q-45 -72 -136.5 -144t-198.5 -72q-42 0 -75 12t-50 27l-87 -482h-290z" />
    <glyph glyph-name="paragraph" unicode="&#xb6;" 
d="M-61 971q0 214 123 358.5t362 144.5h651v-171h-125v-1673h-202v1673h-196v-1673h-202v865q-188 0 -299.5 129t-111.5 347z" />
    <glyph glyph-name="periodcentered" unicode="&#xb7;" horiz-adv-x="569" 
d="M113 718q0 68 49 117t117 49q69 0 119 -48.5t50 -117.5t-49 -117.5t-118 -48.5t-118.5 48.5t-49.5 117.5z" />
    <glyph glyph-name="cedilla" unicode="&#xb8;" horiz-adv-x="682" 
d="M18 -418l38 86q57 -17 78 -22q48 -12 78 -12q60 0 86 25.5t26 53.5q0 42 -29 59t-62 17q-19 0 -39 -4.5t-45 -12.5l-129 117l207 111h109l-88 -131q33 7 47 9.5t30 2.5q81 0 129 -39.5t48 -113.5q0 -92 -75 -145.5t-193 -53.5q-51 0 -123 21q-33 10 -93 32z" />
    <glyph glyph-name="uni00B9" unicode="&#xb9;" horiz-adv-x="682" 
d="M80 1180v116q110 5 141 14t53 26q29 21 46.5 50.5t17.5 63.5h164v-870h-199v600h-223z" />
    <glyph glyph-name="ordmasculine" unicode="&#xba;" horiz-adv-x="748" 
d="M14 1170q0 158 96 254t266 96t266 -96t96 -254t-96 -254t-266 -96t-266 96t-96 254zM206 1170q0 -93 42.5 -149t127.5 -56t125.5 56t40.5 149t-40.5 149t-125.5 56t-127.5 -56t-42.5 -149z" />
    <glyph glyph-name="guillemotright" unicode="&#xbb;" 
d="M0 151v238l204 174l-204 175v238l342 -294v-238zM443 151v238l204 174l-204 175v238l342 -294v-238z" />
    <glyph glyph-name="onequarter" unicode="&#xbc;" horiz-adv-x="1708" 
d="M90 1180v116q113 6 165 26q93 36 93 128h164v-870h-200v600h-222zM369 -38l875 1483h161l-875 -1483h-161zM969 187v149l348 526h216v-542h97v-133h-97v-187h-189v187h-375zM1106 320h238v372z" />
    <glyph glyph-name="onehalf" unicode="&#xbd;" horiz-adv-x="1708" 
d="M47 1180v116q111 5 145.5 16t56.5 29q32 24 44 57t12 52h164v-870h-199v600h-223zM279 -38l875 1483h161l-875 -1483h-161zM976 0q3 209 230 360q154 107 189.5 148.5t35.5 98.5q0 56 -33 91.5t-96 35.5q-86 0 -115 -56q-17 -31 -19 -107h-180q0 144 88 231q84 77 225 77
q145 0 232.5 -78.5t87.5 -198.5q0 -88 -50.5 -157t-146.5 -128l-76 -47q-24 -15 -38 -25t-38 -27q-18 -14 -35.5 -30.5t-25.5 -31.5h410v-156h-645z" />
    <glyph glyph-name="threequarters" unicode="&#xbe;" horiz-adv-x="1708" 
d="M78 853h182q3 -58 22 -90q33 -59 120 -59q40 0 74 19q62 34 62 118q0 80 -66 108q-39 16 -145 20v121q90 2 126 18q62 27 62 107q0 40 -31 73.5t-92 33.5q-76 0 -106 -54q-16 -31 -19 -88h-170q-5 146 103 228q75 52 200 52q140 0 220.5 -66t80.5 -167q0 -66 -28 -108.5
t-86 -71.5q31 2 87 -51.5t56 -152.5q0 -125 -90.5 -201t-224.5 -76q-207 0 -287 111q-43 61 -50 176zM440 -38l870 1483h162l-870 -1483h-162zM1016 187v149l349 526h216v-542h97v-133h-97v-187h-190v187h-375zM1154 320h237v372z" />
    <glyph glyph-name="questiondown" unicode="&#xbf;" horiz-adv-x="1251" 
d="M109 23q0 130 64 220q39 55 147 138l71 55q58 45 77 105q12 38 13 117h270q-6 -166 -32.5 -231.5t-133.5 -149.5l-73 -57q-62 -49 -84 -104q-14 -34 -14 -79q0 -91 53.5 -145t145.5 -54q136 0 192 110q29 59 29 127h289q-12 -280 -162 -379.5t-326 -99.5
q-229 0 -377.5 109t-148.5 318zM459 796v289h299v-289h-299z" />
    <glyph glyph-name="Agrave" unicode="&#xc0;" horiz-adv-x="1479" 
d="M52 0l526 1474h348l522 -1474h-334l-95 303h-543l-102 -303h-322zM410 1891h317l192 -299h-206zM559 557h374l-184 580zM750 1474zM750 1474z" />
    <glyph glyph-name="Aacute" unicode="&#xc1;" horiz-adv-x="1479" 
d="M52 0l526 1474h348l522 -1474h-334l-95 303h-543l-102 -303h-322zM559 557h374l-184 580zM581 1592l192 299h318l-304 -299h-206zM750 1474zM750 1474z" />
    <glyph glyph-name="Acircumflex" unicode="&#xc2;" horiz-adv-x="1479" 
d="M52 0l526 1474h348l522 -1474h-334l-95 303h-543l-102 -303h-322zM387 1592l235 299h256l234 -299h-232l-130 168l-131 -168h-232zM559 557h374l-184 580zM750 1474zM750 1474z" />
    <glyph glyph-name="Atilde" unicode="&#xc3;" horiz-adv-x="1479" 
d="M52 0l526 1474h348l522 -1474h-334l-95 303h-543l-102 -303h-322zM374 1606q22 103 57 156q64 95 190 95q27 0 53 -6t44 -13l94 -35q42 -14 55 -18t29 -4q48 0 67.5 25.5t28.5 60.5h133q-18 -105 -71.5 -176t-156.5 -71q-31 0 -88 15q-33 8 -63 18l-81 27q-17 6 -33 8.5
t-32 2.5q-38 0 -62 -22q-24 -23 -34 -63h-130zM559 557h374l-184 580zM750 1474zM750 1474z" />
    <glyph glyph-name="Adieresis" unicode="&#xc4;" horiz-adv-x="1479" 
d="M52 0l526 1474h348l522 -1474h-334l-95 303h-543l-102 -303h-322zM419 1611v237h261v-237h-261zM559 557h374l-184 580zM750 1474zM750 1474zM819 1611v237h261v-237h-261z" />
    <glyph glyph-name="Aring" unicode="&#xc5;" horiz-adv-x="1479" 
d="M52 0l526 1474h348l522 -1474h-334l-95 303h-543l-102 -303h-322zM544 1748q0 90 64 154t154 64t154 -64t64 -154t-64 -154t-154 -64t-154 64t-64 154zM559 557h374l-184 580zM643 1748q0 -49 35 -83.5t84 -34.5t83.5 34.5t34.5 83.5t-34.5 84t-83.5 35t-84 -35t-35 -84z
M750 1474zM762 1424z" />
    <glyph glyph-name="AE" unicode="&#xc6;" horiz-adv-x="2048" 
d="M18 0l536 1469h1394v-256h-759v-317h683v-252h-683v-384h773v-260h-1076v312h-441l-107 -312h-320zM526 554h360v664h-133z" />
    <glyph glyph-name="Ccedilla" unicode="&#xc7;" horiz-adv-x="1479" 
d="M92 725q0 386 207 595q180 182 458 182q372 0 544 -244q95 -137 102 -275h-308q-30 106 -77 160q-84 96 -249 96q-168 0 -265 -135.5t-97 -383.5t102.5 -371.5t260.5 -123.5q162 0 247 106q47 57 78 171h305q-40 -241 -204.5 -392t-393.5 -151l-61 -90q33 7 47 9.5
t30 2.5q81 0 129 -39.5t48 -113.5q0 -92 -75 -145.5t-193 -53.5q-51 0 -123 21q-33 10 -93 32l38 86q57 -17 78 -22q48 -12 78 -12q60 0 86 25.5t26 53.5q0 42 -29 59t-62 17q-19 0 -39 -4.5t-45 -12.5l-43 40l94 147q-237 0 -419 204q-182 205 -182 562z" />
    <glyph glyph-name="Egrave" unicode="&#xc8;" horiz-adv-x="1366" 
d="M165 0v1474h1081v-261h-780v-313h716v-256h-716v-379h816v-265h-1117zM373 1891h317l192 -299h-206zM713 1474z" />
    <glyph glyph-name="Eacute" unicode="&#xc9;" horiz-adv-x="1366" 
d="M165 0v1474h1081v-261h-780v-313h716v-256h-716v-379h816v-265h-1117zM544 1592l192 299h318l-304 -299h-206zM713 1474z" />
    <glyph glyph-name="Ecircumflex" unicode="&#xca;" horiz-adv-x="1366" 
d="M165 0v1474h1081v-261h-780v-313h716v-256h-716v-379h816v-265h-1117zM350 1592l235 299h256l234 -299h-232l-130 168l-131 -168h-232zM713 1474z" />
    <glyph glyph-name="Edieresis" unicode="&#xcb;" horiz-adv-x="1366" 
d="M165 0v1474h1081v-261h-780v-313h716v-256h-716v-379h816v-265h-1117zM382 1611v237h261v-237h-261zM713 1474zM782 1611v237h261v-237h-261z" />
    <glyph glyph-name="Igrave" unicode="&#xcc;" horiz-adv-x="569" 
d="M-50 1920h317l192 -299h-206zM132 0v1474h306v-1474h-306zM285 1503zM290 1503z" />
    <glyph glyph-name="Iacute" unicode="&#xcd;" horiz-adv-x="569" 
d="M118 1621l192 299h318l-304 -299h-206zM132 0v1474h306v-1474h-306zM285 1503zM287 1503z" />
    <glyph glyph-name="Icircumflex" unicode="&#xce;" horiz-adv-x="569" 
d="M-74 1621l235 299h256l234 -299h-232l-130 168l-131 -168h-232zM132 0v1474h306v-1474h-306zM285 1503zM289 1503z" />
    <glyph glyph-name="Idieresis" unicode="&#xcf;" horiz-adv-x="569" 
d="M-43 1640v237h261v-237h-261zM132 0v1474h306v-1474h-306zM285 1503zM288 1503zM357 1640v237h261v-237h-261z" />
    <glyph glyph-name="Eth" unicode="&#xd0;" horiz-adv-x="1479" 
d="M18 658v256h138v558h616q171 0 291.5 -51.5t208.5 -173.5q67 -93 99 -212t32 -263q0 -266 -99 -460q-159 -312 -534 -312h-614v658h-138zM455 256h213q125 0 179 16q89 25 148 109q54 77 74.5 182.5t20.5 187.5q0 304 -150 409q-84 58 -258 58h-227v-304h310v-256h-310
v-402z" />
    <glyph glyph-name="Ntilde" unicode="&#xd1;" horiz-adv-x="1479" 
d="M151 0v1474h323l587 -1029v1029h287v-1474h-308l-602 1047v-1047h-287zM385 1609q22 103 57 156q64 95 190 95q27 0 53 -6t44 -13l94 -35q42 -14 55 -18t29 -4q48 0 67.5 25.5t28.5 60.5h133q-18 -105 -71.5 -176t-156.5 -71q-31 0 -88 15q-33 8 -63 18l-81 27
q-17 6 -33 8.5t-32 2.5q-38 0 -62 -22q-24 -23 -34 -63h-130zM761 1477zM761 1477z" />
    <glyph glyph-name="Ograve" unicode="&#xd2;" horiz-adv-x="1593" 
d="M101 739q0 405 224 608q167 172 483 172t483 -172q223 -203 223 -608q0 -397 -223 -608q-167 -172 -483 -172t-483 172q-224 211 -224 608zM407 739q0 -249 109 -384t292 -135t290.5 135t107.5 384q0 248 -107.5 383.5t-290.5 135.5t-292 -135t-109 -384zM468 1936h317
l192 -299h-206zM808 1519zM808 1519z" />
    <glyph glyph-name="Oacute" unicode="&#xd3;" horiz-adv-x="1593" 
d="M101 739q0 405 224 608q167 172 483 172t483 -172q223 -203 223 -608q0 -397 -223 -608q-167 -172 -483 -172t-483 172q-224 211 -224 608zM407 739q0 -249 109 -384t292 -135t290.5 135t107.5 384q0 248 -107.5 383.5t-290.5 135.5t-292 -135t-109 -384zM639 1637
l192 299h318l-304 -299h-206zM808 1519zM808 1519z" />
    <glyph glyph-name="Ocircumflex" unicode="&#xd4;" horiz-adv-x="1593" 
d="M101 739q0 405 224 608q167 172 483 172t483 -172q223 -203 223 -608q0 -397 -223 -608q-167 -172 -483 -172t-483 172q-224 211 -224 608zM407 739q0 -249 109 -384t292 -135t290.5 135t107.5 384q0 248 -107.5 383.5t-290.5 135.5t-292 -135t-109 -384zM445 1637
l235 299h256l234 -299h-232l-130 168l-131 -168h-232zM808 1519zM808 1519z" />
    <glyph glyph-name="Otilde" unicode="&#xd5;" horiz-adv-x="1593" 
d="M101 739q0 405 224 608q167 172 483 172t483 -172q223 -203 223 -608q0 -397 -223 -608q-167 -172 -483 -172t-483 172q-224 211 -224 608zM407 739q0 -249 109 -384t292 -135t290.5 135t107.5 384q0 248 -107.5 383.5t-290.5 135.5t-292 -135t-109 -384zM432 1651
q22 103 57 156q64 95 190 95q27 0 53 -6t44 -13l94 -35q42 -14 55 -18t29 -4q48 0 67.5 25.5t28.5 60.5h133q-18 -105 -71.5 -176t-156.5 -71q-31 0 -88 15q-33 8 -63 18l-81 27q-17 6 -33 8.5t-32 2.5q-38 0 -62 -22q-24 -23 -34 -63h-130zM808 1519zM808 1519z" />
    <glyph glyph-name="Odieresis" unicode="&#xd6;" horiz-adv-x="1593" 
d="M101 739q0 405 224 608q167 172 483 172t483 -172q223 -203 223 -608q0 -397 -223 -608q-167 -172 -483 -172t-483 172q-224 211 -224 608zM407 739q0 -249 109 -384t292 -135t290.5 135t107.5 384q0 248 -107.5 383.5t-290.5 135.5t-292 -135t-109 -384zM477 1656v237
h261v-237h-261zM808 1519zM808 1519zM877 1656v237h261v-237h-261z" />
    <glyph glyph-name="multiply" unicode="&#xd7;" horiz-adv-x="1196" 
d="M85 199l344 343l-344 344l185 185l343 -344l347 344l184 -185l-346 -344l346 -343l-184 -188l-347 346l-343 -346z" />
    <glyph glyph-name="Oslash" unicode="&#xd8;" horiz-adv-x="1593" 
d="M71 23l182 190q-58 78 -102 197q-52 142 -52 329q0 346 218 594q188 186 488 186q131 0 256.5 -44t222.5 -127l164 178l85 -81l-168 -187q56 -69 102 -192q45 -128 45 -327q0 -346 -197 -565q-194 -215 -510 -215q-122 0 -243.5 37.5t-230.5 131.5l-175 -185zM405 739
q0 -98 18 -180q10 -48 36 -119l633 697q-39 47 -108 81q-72 40 -179 40q-214 0 -307 -141.5t-93 -377.5zM528 341q59 -66 130 -93.5t147 -27.5q214 0 307.5 161t93.5 358q0 66 -8 128q-13 95 -42 164z" />
    <glyph glyph-name="Ugrave" unicode="&#xd9;" horiz-adv-x="1479" 
d="M156 568v906h313v-906q0 -152 36 -222q56 -124 244 -124q187 0 243 124q36 70 36 222v906h313v-906q0 -235 -73 -366q-136 -240 -519 -240t-520 240q-73 131 -73 366zM409 1891h317l192 -299h-206zM749 1474zM749 1474z" />
    <glyph glyph-name="Uacute" unicode="&#xda;" horiz-adv-x="1479" 
d="M156 568v906h313v-906q0 -152 36 -222q56 -124 244 -124q187 0 243 124q36 70 36 222v906h313v-906q0 -235 -73 -366q-136 -240 -519 -240t-520 240q-73 131 -73 366zM580 1592l192 299h318l-304 -299h-206zM749 1474zM749 1474z" />
    <glyph glyph-name="Ucircumflex" unicode="&#xdb;" horiz-adv-x="1479" 
d="M156 568v906h313v-906q0 -152 36 -222q56 -124 244 -124q187 0 243 124q36 70 36 222v906h313v-906q0 -235 -73 -366q-136 -240 -519 -240t-520 240q-73 131 -73 366zM386 1592l235 299h256l234 -299h-232l-130 168l-131 -168h-232zM749 1474zM749 1474z" />
    <glyph glyph-name="Udieresis" unicode="&#xdc;" horiz-adv-x="1479" 
d="M156 568v906h313v-906q0 -152 36 -222q56 -124 244 -124q187 0 243 124q36 70 36 222v906h313v-906q0 -235 -73 -366q-136 -240 -519 -240t-520 240q-73 131 -73 366zM418 1611v237h261v-237h-261zM749 1474zM749 1474zM818 1611v237h261v-237h-261z" />
    <glyph glyph-name="Yacute" unicode="&#xdd;" horiz-adv-x="1366" 
d="M35 1474h363l306 -642l293 642h349l-493 -920v-554h-308v554zM522 1592l192 299h318l-304 -299h-206zM691 1474zM691 1474z" />
    <glyph glyph-name="Thorn" unicode="&#xde;" horiz-adv-x="1366" 
d="M128 0v1472h299v-221h282q256 0 386.5 -114t130.5 -307q0 -292 -226 -399q-121 -57 -322 -57h-251v-374h-299zM427 611h216q124 0 183 26q106 47 106 183q0 126 -95 168q-54 24 -178 24h-232v-401z" />
    <glyph glyph-name="germandbls" unicode="&#xdf;" horiz-adv-x="1251" 
d="M137 0v1035q0 188 60 286q108 177 418 177q216 0 348 -104t132 -282q0 -67 -19 -118q-36 -95 -133 -153q125 -53 180 -147.5t55 -223.5q0 -184 -113.5 -340.5t-393.5 -156.5q-14 0 -43.5 2.5t-63.5 9.5v228q22 -2 37 -2.5t27 -0.5q158 0 221 92q40 60 40 160
q0 148 -103 204q-61 33 -208 45v199q107 1 151 23q72 38 72 152q0 96 -56.5 139.5t-136.5 43.5q-126 0 -165 -85q-24 -50 -24 -181v-1002h-282z" />
    <glyph glyph-name="agrave" unicode="&#xe0;" 
d="M59 290q0 201 155 291q85 49 250 70l97 12q79 10 113 25q61 26 61 81q0 67 -46.5 92.5t-136.5 25.5q-101 0 -143 -50q-30 -37 -40 -100h-275q9 143 80 235q113 144 388 144q179 0 318 -71t139 -268v-500q0 -52 2 -126q3 -56 17 -76t42 -33v-42h-310q-13 33 -18 62t-8 66
q-59 -64 -136 -109q-92 -53 -208 -53q-148 0 -244.5 84.5t-96.5 239.5zM236 1536h317l192 -299h-206zM345 311q0 -73 40.5 -105.5t98.5 -32.5q92 0 169.5 54t80.5 197v106q-27 -17 -54.5 -27.5t-75.5 -19.5l-64 -12q-90 -16 -129 -39q-66 -39 -66 -121zM576 1119zM576 1119z
" />
    <glyph glyph-name="aacute" unicode="&#xe1;" 
d="M59 290q0 201 155 291q85 49 250 70l97 12q79 10 113 25q61 26 61 81q0 67 -46.5 92.5t-136.5 25.5q-101 0 -143 -50q-30 -37 -40 -100h-275q9 143 80 235q113 144 388 144q179 0 318 -71t139 -268v-500q0 -52 2 -126q3 -56 17 -76t42 -33v-42h-310q-13 33 -18 62t-8 66
q-59 -64 -136 -109q-92 -53 -208 -53q-148 0 -244.5 84.5t-96.5 239.5zM345 311q0 -73 40.5 -105.5t98.5 -32.5q92 0 169.5 54t80.5 197v106q-27 -17 -54.5 -27.5t-75.5 -19.5l-64 -12q-90 -16 -129 -39q-66 -39 -66 -121zM407 1237l192 299h318l-304 -299h-206zM576 1119z
M576 1119z" />
    <glyph glyph-name="acircumflex" unicode="&#xe2;" 
d="M59 290q0 201 155 291q85 49 250 70l97 12q79 10 113 25q61 26 61 81q0 67 -46.5 92.5t-136.5 25.5q-101 0 -143 -50q-30 -37 -40 -100h-275q9 143 80 235q113 144 388 144q179 0 318 -71t139 -268v-500q0 -52 2 -126q3 -56 17 -76t42 -33v-42h-310q-13 33 -18 62t-8 66
q-59 -64 -136 -109q-92 -53 -208 -53q-148 0 -244.5 84.5t-96.5 239.5zM213 1237l235 299h256l234 -299h-232l-130 168l-131 -168h-232zM345 311q0 -73 40.5 -105.5t98.5 -32.5q92 0 169.5 54t80.5 197v106q-27 -17 -54.5 -27.5t-75.5 -19.5l-64 -12q-90 -16 -129 -39
q-66 -39 -66 -121zM576 1119zM576 1119z" />
    <glyph glyph-name="atilde" unicode="&#xe3;" 
d="M59 290q0 201 155 291q85 49 250 70l97 12q79 10 113 25q61 26 61 81q0 67 -46.5 92.5t-136.5 25.5q-101 0 -143 -50q-30 -37 -40 -100h-275q9 143 80 235q113 144 388 144q179 0 318 -71t139 -268v-500q0 -52 2 -126q3 -56 17 -76t42 -33v-42h-310q-13 33 -18 62t-8 66
q-59 -64 -136 -109q-92 -53 -208 -53q-148 0 -244.5 84.5t-96.5 239.5zM200 1251q22 103 57 156q64 95 190 95q27 0 53 -6t44 -13l94 -35q42 -14 55 -18t29 -4q48 0 67.5 25.5t28.5 60.5h133q-18 -105 -71.5 -176t-156.5 -71q-31 0 -88 15q-33 8 -63 18l-81 27
q-17 6 -33 8.5t-32 2.5q-38 0 -62 -22q-24 -23 -34 -63h-130zM345 311q0 -73 40.5 -105.5t98.5 -32.5q92 0 169.5 54t80.5 197v106q-27 -17 -54.5 -27.5t-75.5 -19.5l-64 -12q-90 -16 -129 -39q-66 -39 -66 -121zM576 1119zM576 1119z" />
    <glyph glyph-name="adieresis" unicode="&#xe4;" 
d="M59 290q0 201 155 291q85 49 250 70l97 12q79 10 113 25q61 26 61 81q0 67 -46.5 92.5t-136.5 25.5q-101 0 -143 -50q-30 -37 -40 -100h-275q9 143 80 235q113 144 388 144q179 0 318 -71t139 -268v-500q0 -52 2 -126q3 -56 17 -76t42 -33v-42h-310q-13 33 -18 62t-8 66
q-59 -64 -136 -109q-92 -53 -208 -53q-148 0 -244.5 84.5t-96.5 239.5zM245 1256v237h261v-237h-261zM345 311q0 -73 40.5 -105.5t98.5 -32.5q92 0 169.5 54t80.5 197v106q-27 -17 -54.5 -27.5t-75.5 -19.5l-64 -12q-90 -16 -129 -39q-66 -39 -66 -121zM576 1119zM576 1119z
M645 1256v237h261v-237h-261z" />
    <glyph glyph-name="aring" unicode="&#xe5;" 
d="M59 290q0 201 155 291q85 49 250 70l97 12q79 10 113 25q61 26 61 81q0 67 -46.5 92.5t-136.5 25.5q-101 0 -143 -50q-30 -37 -40 -100h-275q9 143 80 235q113 144 388 144q179 0 318 -71t139 -268v-500q0 -52 2 -126q3 -56 17 -76t42 -33v-42h-310q-13 33 -18 62t-8 66
q-59 -64 -136 -109q-92 -53 -208 -53q-148 0 -244.5 84.5t-96.5 239.5zM345 311q0 -73 40.5 -105.5t98.5 -32.5q92 0 169.5 54t80.5 197v106q-27 -17 -54.5 -27.5t-75.5 -19.5l-64 -12q-90 -16 -129 -39q-66 -39 -66 -121zM358 1443q0 90 64 154t154 64t154 -64t64 -154
t-64 -154t-154 -64t-154 64t-64 154zM457 1443q0 -49 35 -83.5t84 -34.5t83.5 34.5t34.5 83.5t-34.5 84t-83.5 35t-84 -35t-35 -84zM576 1119zM576 1119z" />
    <glyph glyph-name="ae" unicode="&#xe6;" horiz-adv-x="1821" 
d="M56 295q0 185 137 270q76 46 231 70l175 26q68 10 99 27q48 26 48 78q0 79 -80 108q-43 15 -115 15q-110 0 -153 -62q-23 -33 -26 -93h-278q11 225 187 318q117 62 298 62q129 0 228 -44q55 -24 115 -73q61 52 140 84.5t183 32.5q332 0 449 -273q62 -145 57 -367h-746
q0 -113 27 -173q50 -110 192 -110q80 0 139 27.5t87 108.5h289q-12 -100 -99 -200q-143 -163 -406 -163q-135 0 -231.5 51t-149.5 131q-74 -95 -177.5 -139t-237.5 -44q-202 0 -292 98t-90 234zM341 299q0 -47 35 -88t119 -41q87 0 145 32q104 58 104 210v109
q-21 -15 -38 -21.5t-76 -18.5l-109 -22q-94 -19 -126 -41q-54 -36 -54 -119zM1009 658h446q-7 105 -60 167.5t-160 62.5q-108 0 -164 -56.5t-62 -173.5z" />
    <glyph glyph-name="ccedilla" unicode="&#xe7;" 
d="M71 523q0 281 137 437t378 156q205 0 335.5 -92t154.5 -325h-292q-8 61 -41 110q-48 66 -149 66q-144 0 -197 -143q-28 -76 -28 -202q0 -120 28 -193q51 -136 192 -136q100 0 142 54t51 140h291q-10 -130 -94 -246q-134 -187 -366 -187l-63 -93q33 7 47 9.5t30 2.5
q81 0 129 -39.5t48 -113.5q0 -92 -75 -145.5t-193 -53.5q-51 0 -123 21q-33 10 -93 32l38 86q57 -17 78 -22q48 -12 78 -12q60 0 86 25.5t26 53.5q0 42 -29 59t-62 17q-19 0 -39 -4.5t-45 -12.5l-43 40l99 150q-188 0 -312 156t-124 405z" />
    <glyph glyph-name="egrave" unicode="&#xe8;" 
d="M47 534q0 283 143.5 434t372.5 151q136 0 245 -51t180 -161q64 -97 83 -225q11 -75 9 -216h-746q6 -164 103 -230q59 -41 142 -41q88 0 143 50q30 27 53 75h291q-11 -97 -101 -197q-140 -159 -392 -159q-208 0 -367 134t-159 436zM243 1536h317l192 -299h-206zM341 654
h443q-7 113 -68.5 171.5t-152.5 58.5q-99 0 -153.5 -62t-68.5 -168zM583 1119zM583 1119z" />
    <glyph glyph-name="eacute" unicode="&#xe9;" 
d="M47 534q0 283 143.5 434t372.5 151q136 0 245 -51t180 -161q64 -97 83 -225q11 -75 9 -216h-746q6 -164 103 -230q59 -41 142 -41q88 0 143 50q30 27 53 75h291q-11 -97 -101 -197q-140 -159 -392 -159q-208 0 -367 134t-159 436zM341 654h443q-7 113 -68.5 171.5
t-152.5 58.5q-99 0 -153.5 -62t-68.5 -168zM414 1237l192 299h318l-304 -299h-206zM583 1119zM583 1119z" />
    <glyph glyph-name="ecircumflex" unicode="&#xea;" 
d="M47 534q0 283 143.5 434t372.5 151q136 0 245 -51t180 -161q64 -97 83 -225q11 -75 9 -216h-746q6 -164 103 -230q59 -41 142 -41q88 0 143 50q30 27 53 75h291q-11 -97 -101 -197q-140 -159 -392 -159q-208 0 -367 134t-159 436zM220 1237l235 299h256l234 -299h-232
l-130 168l-131 -168h-232zM341 654h443q-7 113 -68.5 171.5t-152.5 58.5q-99 0 -153.5 -62t-68.5 -168zM583 1119zM583 1119z" />
    <glyph glyph-name="edieresis" unicode="&#xeb;" 
d="M47 534q0 283 143.5 434t372.5 151q136 0 245 -51t180 -161q64 -97 83 -225q11 -75 9 -216h-746q6 -164 103 -230q59 -41 142 -41q88 0 143 50q30 27 53 75h291q-11 -97 -101 -197q-140 -159 -392 -159q-208 0 -367 134t-159 436zM252 1256v237h261v-237h-261zM341 654
h443q-7 113 -68.5 171.5t-152.5 58.5q-99 0 -153.5 -62t-68.5 -168zM583 1119zM583 1119zM652 1256v237h261v-237h-261z" />
    <glyph glyph-name="igrave" unicode="&#xec;" horiz-adv-x="569" 
d="M-50 1536h317l192 -299h-206zM137 0v1090h289v-1090h-289zM282 1119zM290 1119z" />
    <glyph glyph-name="iacute" unicode="&#xed;" horiz-adv-x="569" 
d="M118 1237l192 299h318l-304 -299h-206zM137 0v1090h289v-1090h-289zM282 1119zM287 1119z" />
    <glyph glyph-name="icircumflex" unicode="&#xee;" horiz-adv-x="569" 
d="M-74 1237l235 299h256l234 -299h-232l-130 168l-131 -168h-232zM137 0v1090h289v-1090h-289zM282 1119zM289 1119z" />
    <glyph glyph-name="idieresis" unicode="&#xef;" horiz-adv-x="569" 
d="M-43 1256v237h261v-237h-261zM137 0v1090h289v-1090h-289zM282 1119zM288 1119zM357 1256v237h261v-237h-261z" />
    <glyph glyph-name="eth" unicode="&#xf0;" horiz-adv-x="1251" 
d="M109 499q0 222 132.5 365t323.5 143q38 0 64.5 -3t76.5 -16q-77 84 -107.5 113.5t-84.5 76.5l-221 -100l-102 103l226 99q-55 39 -70.5 53t-55.5 46l235 104q33 -22 56.5 -39.5t69.5 -52.5l182 79l102 -103l-178 -73q113 -118 156 -169q68 -79 109 -148
q83 -141 111.5 -250.5t28.5 -225.5q0 -225 -136.5 -377.5t-382.5 -152.5q-255 0 -395 149t-140 379zM395 493q0 -152 69.5 -226t172.5 -74q117 0 180.5 83t63.5 233q0 115 -56 204t-184 89q-111 0 -178.5 -76.5t-67.5 -232.5z" />
    <glyph glyph-name="ntilde" unicode="&#xf1;" horiz-adv-x="1251" 
d="M135 0v1088h275v-159q55 84 104 121q88 66 223 66q169 0 276.5 -88.5t107.5 -293.5v-734h-292v663q0 86 -23 132q-42 84 -160 84q-145 0 -199 -123q-28 -65 -28 -166v-590h-284zM256 1251q22 103 57 156q64 95 190 95q27 0 53 -6t44 -13l94 -35q42 -14 55 -18t29 -4
q48 0 67.5 25.5t28.5 60.5h133q-18 -105 -71.5 -176t-156.5 -71q-31 0 -88 15q-33 8 -63 18l-81 27q-17 6 -33 8.5t-32 2.5q-38 0 -62 -22q-24 -23 -34 -63h-130zM632 1119zM632 1119z" />
    <glyph glyph-name="ograve" unicode="&#xf2;" horiz-adv-x="1251" 
d="M66 543q0 236 138 409t419 173t419 -173t138 -409q0 -240 -138 -410.5t-419 -170.5t-419 170.5t-138 410.5zM283 1536h317l192 -299h-206zM362 543q0 -164 67.5 -253t192.5 -89t192 89t67 253t-67 252.5t-192 88.5t-192.5 -88.5t-67.5 -252.5zM623 1119zM623 1119z" />
    <glyph glyph-name="oacute" unicode="&#xf3;" horiz-adv-x="1251" 
d="M66 543q0 236 138 409t419 173t419 -173t138 -409q0 -240 -138 -410.5t-419 -170.5t-419 170.5t-138 410.5zM362 543q0 -164 67.5 -253t192.5 -89t192 89t67 253t-67 252.5t-192 88.5t-192.5 -88.5t-67.5 -252.5zM454 1237l192 299h318l-304 -299h-206zM623 1119z
M623 1119z" />
    <glyph glyph-name="ocircumflex" unicode="&#xf4;" horiz-adv-x="1251" 
d="M66 543q0 236 138 409t419 173t419 -173t138 -409q0 -240 -138 -410.5t-419 -170.5t-419 170.5t-138 410.5zM260 1237l235 299h256l234 -299h-232l-130 168l-131 -168h-232zM362 543q0 -164 67.5 -253t192.5 -89t192 89t67 253t-67 252.5t-192 88.5t-192.5 -88.5
t-67.5 -252.5zM623 1119zM623 1119z" />
    <glyph glyph-name="otilde" unicode="&#xf5;" horiz-adv-x="1251" 
d="M66 543q0 236 138 409t419 173t419 -173t138 -409q0 -240 -138 -410.5t-419 -170.5t-419 170.5t-138 410.5zM247 1251q22 103 57 156q64 95 190 95q27 0 53 -6t44 -13l94 -35q42 -14 55 -18t29 -4q48 0 67.5 25.5t28.5 60.5h133q-18 -105 -71.5 -176t-156.5 -71
q-31 0 -88 15q-33 8 -63 18l-81 27q-17 6 -33 8.5t-32 2.5q-38 0 -62 -22q-24 -23 -34 -63h-130zM362 543q0 -164 67.5 -253t192.5 -89t192 89t67 253t-67 252.5t-192 88.5t-192.5 -88.5t-67.5 -252.5zM623 1119zM623 1119z" />
    <glyph glyph-name="odieresis" unicode="&#xf6;" horiz-adv-x="1251" 
d="M66 543q0 236 138 409t419 173t419 -173t138 -409q0 -240 -138 -410.5t-419 -170.5t-419 170.5t-138 410.5zM292 1256v237h261v-237h-261zM362 543q0 -164 67.5 -253t192.5 -89t192 89t67 253t-67 252.5t-192 88.5t-192.5 -88.5t-67.5 -252.5zM623 1119zM623 1119z
M692 1256v237h261v-237h-261z" />
    <glyph glyph-name="divide" unicode="&#xf7;" horiz-adv-x="1124" 
d="M73 412v261h1083v-261h-1083zM462 0v298h306v-298h-306zM462 786v297h306v-297h-306z" />
    <glyph glyph-name="oslash" unicode="&#xf8;" horiz-adv-x="1251" 
d="M42 0l142 144q-69 93 -93.5 200.5t-24.5 197.5q0 250 146 416.5t390 166.5q142 0 230 -30.5t163 -92.5l138 145l71 -67l-143 -149q66 -87 92.5 -185.5t26.5 -193.5q0 -264 -151.5 -428.5t-417.5 -164.5q-132 0 -235 44q-58 25 -125 77l-135 -142zM362 549q0 -49 7 -98
t24 -84l415 441q-36 44 -106 64q-43 12 -84 12q-119 0 -187.5 -89.5t-68.5 -245.5zM445 279q42 -41 70 -56q46 -24 116 -24q123 0 186.5 96t63.5 244q0 50 -4.5 81.5t-18.5 97.5z" />
    <glyph glyph-name="ugrave" unicode="&#xf9;" horiz-adv-x="1251" 
d="M125 433v657h292v-657q0 -93 22 -140q39 -83 153 -83q146 0 200 118q28 64 28 169v593h289v-1090h-277v154q-4 -5 -20 -30t-38 -44q-67 -60 -129.5 -82t-146.5 -22q-242 0 -326 174q-47 96 -47 283zM277 1536h317l192 -299h-206zM617 1119zM617 1119z" />
    <glyph glyph-name="uacute" unicode="&#xfa;" horiz-adv-x="1251" 
d="M125 433v657h292v-657q0 -93 22 -140q39 -83 153 -83q146 0 200 118q28 64 28 169v593h289v-1090h-277v154q-4 -5 -20 -30t-38 -44q-67 -60 -129.5 -82t-146.5 -22q-242 0 -326 174q-47 96 -47 283zM448 1237l192 299h318l-304 -299h-206zM617 1119zM617 1119z" />
    <glyph glyph-name="ucircumflex" unicode="&#xfb;" horiz-adv-x="1251" 
d="M125 433v657h292v-657q0 -93 22 -140q39 -83 153 -83q146 0 200 118q28 64 28 169v593h289v-1090h-277v154q-4 -5 -20 -30t-38 -44q-67 -60 -129.5 -82t-146.5 -22q-242 0 -326 174q-47 96 -47 283zM254 1237l235 299h256l234 -299h-232l-130 168l-131 -168h-232z
M617 1119zM617 1119z" />
    <glyph glyph-name="udieresis" unicode="&#xfc;" horiz-adv-x="1251" 
d="M125 433v657h292v-657q0 -93 22 -140q39 -83 153 -83q146 0 200 118q28 64 28 169v593h289v-1090h-277v154q-4 -5 -20 -30t-38 -44q-67 -60 -129.5 -82t-146.5 -22q-242 0 -326 174q-47 96 -47 283zM286 1256v237h261v-237h-261zM617 1119zM617 1119zM686 1256v237h261
v-237h-261z" />
    <glyph glyph-name="yacute" unicode="&#xfd;" 
d="M21 1090h317l238 -804l225 804h303l-374 -1072q-108 -310 -171 -384.5t-252 -74.5q-38 0 -61 0.5t-69 3.5v228l36 -2q42 -2 80 3t64 23q25 17 46.5 71t17.5 66zM394 1237l192 299h318l-304 -299h-206zM563 1119zM563 1119z" />
    <glyph glyph-name="thorn" unicode="&#xfe;" horiz-adv-x="1251" 
d="M128 -427v1899h284v-529q51 89 128.5 132.5t179.5 43.5q210 0 335 -141.5t125 -425.5q0 -245 -117.5 -413t-338.5 -168q-87 0 -146 23q-102 39 -166 150v-571h-284zM405 543q0 -156 61 -245t182 -89q154 0 211 150q30 78 30 194q0 146 -65 230t-181 84q-97 0 -167.5 -77
t-70.5 -247z" />
    <glyph glyph-name="ydieresis" unicode="&#xff;" 
d="M21 1090h317l238 -804l225 804h303l-374 -1072q-108 -310 -171 -384.5t-252 -74.5q-38 0 -61 0.5t-69 3.5v228l36 -2q42 -2 80 3t64 23q25 17 46.5 71t17.5 66zM232 1256v237h261v-237h-261zM563 1119zM563 1119zM632 1256v237h261v-237h-261z" />
    <glyph glyph-name="OE" unicode="&#x152;" horiz-adv-x="2048" 
d="M75 734q0 343 185 588q163 183 413 183q127 0 220 -48q51 -26 112 -85v97h962v-256h-683v-322h636v-247h-636v-384h683v-260h-962v101q-52 -78 -138 -108.5t-192 -30.5q-252 0 -415 184q-185 245 -185 588zM376 720q0 -209 87 -359.5t262 -150.5q112 0 186.5 60.5
t74.5 129.5v654q0 78 -68 135t-196 57q-178 0 -262 -155t-84 -371z" />
    <glyph glyph-name="oe" unicode="&#x153;" horiz-adv-x="1933" 
d="M63 536q0 273 149 425.5t392 152.5q144 0 237 -44t154 -115q80 78 138 109q95 50 233 50q127 0 229 -51t174 -147q58 -77 78 -200q16 -80 16 -242h-745q6 -127 63.5 -203.5t163.5 -76.5q89 0 144 28.5t75 99.5h284q-19 -141 -146.5 -248.5t-363.5 -107.5q-135 0 -235 55
q-58 32 -127 102q-55 -64 -116 -98q-108 -61 -268 -61q-244 0 -386.5 159t-142.5 413zM357 542q0 -172 61 -261t180 -89q144 0 203 98t59 247q0 162 -57 254.5t-200 92.5q-157 0 -215 -145q-31 -76 -31 -197zM1121 658h452q-2 83 -32 136q-56 99 -201 99q-66 0 -117 -29
q-96 -57 -102 -206z" />
    <glyph glyph-name="Ydieresis" unicode="&#x178;" horiz-adv-x="1366" 
d="M35 1474h363l306 -642l293 642h349l-493 -920v-554h-308v554zM360 1611v237h261v-237h-261zM691 1474zM691 1474zM760 1611v237h261v-237h-261z" />
    <glyph glyph-name="circumflex" unicode="&#x2c6;" horiz-adv-x="682" 
d="M-74 1237l235 299h256l234 -299h-232l-130 168l-131 -168h-232zM289 1119z" />
    <glyph glyph-name="tilde" unicode="&#x2dc;" horiz-adv-x="682" 
d="M-88 1251q22 103 57 156q64 95 190 95q27 0 53 -6t44 -13l94 -35q42 -14 55 -18t29 -4q48 0 67.5 25.5t28.5 60.5h133q-18 -105 -71.5 -176t-156.5 -71q-31 0 -88 15q-33 8 -63 18l-81 27q-17 6 -33 8.5t-32 2.5q-38 0 -62 -22q-24 -23 -34 -63h-130zM288 1119z" />
    <glyph glyph-name="uni2000" unicode="&#x2000;" horiz-adv-x="983" 
 />
    <glyph glyph-name="uni2001" unicode="&#x2001;" horiz-adv-x="1966" 
 />
    <glyph glyph-name="uni2002" unicode="&#x2002;" horiz-adv-x="983" 
 />
    <glyph glyph-name="uni2003" unicode="&#x2003;" horiz-adv-x="1966" 
 />
    <glyph glyph-name="uni2004" unicode="&#x2004;" horiz-adv-x="655" 
 />
    <glyph glyph-name="uni2005" unicode="&#x2005;" horiz-adv-x="491" 
 />
    <glyph glyph-name="uni2006" unicode="&#x2006;" horiz-adv-x="327" 
 />
    <glyph glyph-name="uni2007" unicode="&#x2007;" horiz-adv-x="327" 
 />
    <glyph glyph-name="uni2008" unicode="&#x2008;" horiz-adv-x="245" 
 />
    <glyph glyph-name="uni2009" unicode="&#x2009;" horiz-adv-x="393" 
 />
    <glyph glyph-name="uni200A" unicode="&#x200a;" horiz-adv-x="109" 
 />
    <glyph glyph-name="uni2010" unicode="&#x2010;" horiz-adv-x="682" 
d="M47 436v270h574v-270h-574z" />
    <glyph glyph-name="uni2011" unicode="&#x2011;" horiz-adv-x="682" 
d="M47 436v270h574v-270h-574z" />
    <glyph glyph-name="figuredash" unicode="&#x2012;" horiz-adv-x="682" 
d="M47 436v270h574v-270h-574z" />
    <glyph glyph-name="endash" unicode="&#x2013;" 
d="M-5 464v218h1147v-218h-1147z" />
    <glyph glyph-name="emdash" unicode="&#x2014;" horiz-adv-x="2048" 
d="M241 464v218h1565v-218h-1565z" />
    <glyph glyph-name="quoteleft" unicode="&#x2018;" horiz-adv-x="569" 
d="M137 926v211q0 153 72.5 238.5t207.5 112.5v-104q-103 -30 -137 -112q-19 -44 -15 -83h156v-263h-284z" />
    <glyph glyph-name="quoteright" unicode="&#x2019;" horiz-adv-x="569" 
d="M132 1206v263h285v-211q0 -151 -73.5 -238t-206.5 -113v105q98 31 135 105q20 44 17 89h-157z" />
    <glyph glyph-name="quotesinglbase" unicode="&#x201a;" horiz-adv-x="569" 
d="M146 0v289h290v-237q-1 -116 -24 -180q-38 -99 -118 -151q-47 -30 -143 -58v109q84 28 118 75t34 153h-157z" />
    <glyph glyph-name="quotedblleft" unicode="&#x201c;" horiz-adv-x="1024" 
d="M139 926v211q0 150 71.5 237t208.5 114v-104q-102 -32 -137 -110q-18 -41 -15 -85h157v-263h-285zM613 926v211q0 152 73.5 238t206.5 113v-104q-101 -31 -136 -112q-20 -43 -16 -83h157v-263h-285z" />
    <glyph glyph-name="quotedblright" unicode="&#x201d;" horiz-adv-x="1024" 
d="M151 1206v263h285v-211q0 -147 -71.5 -236t-208.5 -115v105q101 32 136 110q19 41 16 84h-157zM623 1206v263h284v-211q0 -143 -69.5 -233.5t-209.5 -117.5v105q103 31 137 114q14 33 14 80h-156z" />
    <glyph glyph-name="quotedblbase" unicode="&#x201e;" horiz-adv-x="1024" 
d="M146 0v289h290v-237q-1 -116 -24 -180q-38 -99 -118 -151q-47 -30 -143 -58v109q84 28 118 75t34 153h-157zM594 0v289h290v-237q-4 -124 -24 -185q-24 -70 -93.5 -126.5t-167.5 -77.5v109q99 28 133 105q19 44 19 123h-157z" />
    <glyph glyph-name="bullet" unicode="&#x2022;" horiz-adv-x="717" 
d="M145 734q0 96 62.5 158t158.5 62t158.5 -62t62.5 -158t-62.5 -159t-158.5 -63t-158.5 63t-62.5 159z" />
    <glyph glyph-name="ellipsis" unicode="&#x2026;" horiz-adv-x="2048" 
d="M189 0v298h306v-298h-306zM872 0v298h306v-298h-306zM1554 0v298h306v-298h-306z" />
    <glyph glyph-name="uni202F" unicode="&#x202f;" horiz-adv-x="393" 
 />
    <glyph glyph-name="guilsinglleft" unicode="&#x2039;" horiz-adv-x="682" 
d="M170 444v238l342 294v-238l-204 -175l204 -174v-238z" />
    <glyph glyph-name="guilsinglright" unicode="&#x203a;" horiz-adv-x="682" 
d="M170 151v238l204 174l-204 175v238l342 -294v-238z" />
    <glyph glyph-name="uni205F" unicode="&#x205f;" horiz-adv-x="491" 
 />
    <glyph glyph-name="Euro" unicode="&#x20ac;" horiz-adv-x="1524" 
d="M68 419l42 201h247q-4 50 -4 105q0 48 3 94h-288l42 201h274q42 179 143 300q151 182 385 182q312 0 457 -244q80 -137 86 -275h-259q-25 106 -65 160q-70 96 -209 96q-141 0 -223 -136q-22 -37 -38 -83h397l-42 -201h-395q-3 -47 -3 -99q0 -53 3 -100h370l-42 -201h-283
q16 -39 38 -71q86 -123 219 -123q136 0 207 106q40 57 66 171h256q-34 -241 -172 -392t-354 -151q-267 0 -420 204q-80 107 -118 256h-320z" />
    <glyph glyph-name="trademark" unicode="&#x2122;" horiz-adv-x="2048" 
d="M203 1296v178h655v-178h-221v-564h-216v564h-218zM924 732v742h308l135 -427l133 427h308v-742h-197v538l-161 -538h-168l-161 538v-538h-197z" />
    <hkern u1="&#x20;" u2="Y" k="36" />
    <hkern u1="&#x20;" u2="A" k="75" />
    <hkern u1="&#x31;" u2="&#x31;" k="112" />
    <hkern u1="A" u2="&#x2019;" k="112" />
    <hkern u1="A" u2="y" k="75" />
    <hkern u1="A" u2="w" k="36" />
    <hkern u1="A" u2="v" k="75" />
    <hkern u1="A" u2="Y" k="188" />
    <hkern u1="A" u2="W" k="112" />
    <hkern u1="A" u2="V" k="151" />
    <hkern u1="A" u2="T" k="151" />
    <hkern u1="A" u2="&#x20;" k="75" />
    <hkern u1="F" u2="A" k="112" />
    <hkern u1="F" u2="&#x2e;" k="227" />
    <hkern u1="F" u2="&#x2c;" k="227" />
    <hkern u1="L" u2="&#x2019;" k="112" />
    <hkern u1="L" u2="y" k="75" />
    <hkern u1="L" u2="Y" k="188" />
    <hkern u1="L" u2="W" k="112" />
    <hkern u1="L" u2="V" k="151" />
    <hkern u1="L" u2="T" k="151" />
    <hkern u1="L" u2="&#x20;" k="36" />
    <hkern u1="P" u2="A" k="151" />
    <hkern u1="P" u2="&#x2e;" k="264" />
    <hkern u1="P" u2="&#x2c;" k="264" />
    <hkern u1="P" u2="&#x20;" k="36" />
    <hkern u1="R" u2="Y" k="75" />
    <hkern u1="R" u2="W" k="36" />
    <hkern u1="R" u2="V" k="36" />
    <hkern u1="T" u2="y" k="151" />
    <hkern u1="T" u2="w" k="151" />
    <hkern u1="T" u2="u" k="151" />
    <hkern u1="T" u2="s" k="151" />
    <hkern u1="T" u2="r" k="112" />
    <hkern u1="T" u2="o" k="151" />
    <hkern u1="T" u2="i" k="36" />
    <hkern u1="T" u2="e" k="151" />
    <hkern u1="T" u2="c" k="151" />
    <hkern u1="T" u2="a" k="151" />
    <hkern u1="T" u2="O" k="36" />
    <hkern u1="T" u2="A" k="151" />
    <hkern u1="T" u2="&#x3b;" k="227" />
    <hkern u1="T" u2="&#x3a;" k="227" />
    <hkern u1="T" u2="&#x2e;" k="227" />
    <hkern u1="T" u2="&#x2d;" k="112" />
    <hkern u1="T" u2="&#x2c;" k="227" />
    <hkern u1="V" u2="y" k="75" />
    <hkern u1="V" u2="u" k="75" />
    <hkern u1="V" u2="r" k="112" />
    <hkern u1="V" u2="o" k="151" />
    <hkern u1="V" u2="i" k="36" />
    <hkern u1="V" u2="e" k="112" />
    <hkern u1="V" u2="a" k="112" />
    <hkern u1="V" u2="A" k="151" />
    <hkern u1="V" u2="&#x3b;" k="112" />
    <hkern u1="V" u2="&#x3a;" k="112" />
    <hkern u1="V" u2="&#x2e;" k="188" />
    <hkern u1="V" u2="&#x2d;" k="112" />
    <hkern u1="V" u2="&#x2c;" k="188" />
    <hkern u1="W" u2="y" k="36" />
    <hkern u1="W" u2="u" k="36" />
    <hkern u1="W" u2="r" k="36" />
    <hkern u1="W" u2="o" k="36" />
    <hkern u1="W" u2="i" k="18" />
    <hkern u1="W" u2="e" k="36" />
    <hkern u1="W" u2="a" k="75" />
    <hkern u1="W" u2="A" k="112" />
    <hkern u1="W" u2="&#x3b;" k="36" />
    <hkern u1="W" u2="&#x3a;" k="36" />
    <hkern u1="W" u2="&#x2e;" k="112" />
    <hkern u1="W" u2="&#x2d;" k="40" />
    <hkern u1="W" u2="&#x2c;" k="112" />
    <hkern u1="Y" u2="v" k="112" />
    <hkern u1="Y" u2="u" k="112" />
    <hkern u1="Y" u2="q" k="151" />
    <hkern u1="Y" u2="p" k="112" />
    <hkern u1="Y" u2="o" k="151" />
    <hkern u1="Y" u2="i" k="75" />
    <hkern u1="Y" u2="e" k="112" />
    <hkern u1="Y" u2="a" k="112" />
    <hkern u1="Y" u2="A" k="188" />
    <hkern u1="Y" u2="&#x3b;" k="151" />
    <hkern u1="Y" u2="&#x3a;" k="151" />
    <hkern u1="Y" u2="&#x2e;" k="227" />
    <hkern u1="Y" u2="&#x2d;" k="112" />
    <hkern u1="Y" u2="&#x2c;" k="227" />
    <hkern u1="Y" u2="&#x20;" k="36" />
    <hkern u1="f" u2="&#x2019;" k="-37" />
    <hkern u1="r" u2="&#x2019;" k="-76" />
    <hkern u1="r" u2="&#x2e;" k="112" />
    <hkern u1="r" u2="&#x2c;" k="112" />
    <hkern u1="v" u2="&#x2e;" k="151" />
    <hkern u1="v" u2="&#x2c;" k="151" />
    <hkern u1="w" u2="&#x2e;" k="75" />
    <hkern u1="w" u2="&#x2c;" k="75" />
    <hkern u1="y" u2="&#x2e;" k="151" />
    <hkern u1="y" u2="&#x2c;" k="151" />
    <hkern u1="&#x2018;" u2="&#x2018;" k="75" />
    <hkern u1="&#x2019;" u2="&#x2019;" k="75" />
    <hkern u1="&#x2019;" u2="s" k="75" />
    <hkern u1="&#x2019;" u2="&#x20;" k="112" />
  </font>
</defs></svg>
